<svg xmlns="http://www.w3.org/2000/svg" width="176.71" height="96.885" viewBox="0 0 176.71 96.885">
  <g id="Group_1421" data-name="Group 1421" transform="translate(4.007 4.063)">
    <g id="Group_91" data-name="Group 91" transform="matrix(0.999, -0.035, 0.035, 0.999, 10.395, 11.506)">
      <path id="Path_219" data-name="Path 219" d="M43.726,46.359h0L0,0" transform="translate(43.726 61.803) rotate(-180)" fill="none" stroke="#ffd639" stroke-linecap="round" stroke-width="2"/>
      <path id="Path_218" data-name="Path 218" d="M40.567,42.917,0,0" transform="translate(43.079 55.775) rotate(-180)" fill="none" stroke="#ffd639" stroke-linecap="round" stroke-width="2"/>
      <path id="Path_217" data-name="Path 217" d="M41.34,41.445,0,0" transform="translate(53.961 44.135) rotate(-180)" fill="none" stroke="#ffd639" stroke-linecap="round" stroke-width="2"/>
      <path id="Path_211" data-name="Path 211" d="M39.787,40.281,0,0" transform="translate(49.756 45.641) rotate(-180)" fill="none" stroke="#ffd639" stroke-linecap="round" stroke-width="2"/>
      <path id="Path_212" data-name="Path 212" d="M36.345,37.643,0,0" transform="translate(43.759 45.558) rotate(-180)" fill="none" stroke="#ffd639" stroke-linecap="round" stroke-width="2"/>
      <path id="Path_213" data-name="Path 213" d="M40.505,42.479,0,0" transform="translate(45.486 52.797) rotate(-180)" fill="none" stroke="#ffd639" stroke-linecap="round" stroke-width="2"/>
      <path id="Path_214" data-name="Path 214" d="M44.106,44.091,0,0" transform="translate(59.434 44.091) rotate(-180)" fill="none" stroke="#ffd639" stroke-linecap="round" stroke-width="2"/>
    </g>
    <ellipse id="Ellipse_49" data-name="Ellipse 49" cx="20.218" cy="20.765" rx="20.218" ry="20.765" transform="translate(46.564 46.65)" fill="#fff"/>
    <path id="Path_207" data-name="Path 207" d="M3273.245,2732.256s-13.766-14.345-30.478-30.088-28.244-13.3-37.441-5.828-14.783,24.02,1.239,38.854,47.756,42.782,47.756,42.782,48.605-39.187,54.968-46.487,9.413-24.439-4.635-35.41-31.465-4.463-37.055,5.809" transform="translate(-3196.418 -2690.384)" fill="none" stroke="#f4c203" stroke-linecap="round" stroke-width="8"/>
    <ellipse id="Ellipse_48" data-name="Ellipse 48" cx="3.43" cy="3.43" rx="3.43" ry="3.43" transform="translate(98.605 19.705)" fill="#ffd639"/>
    <path id="Path_208" data-name="Path 208" d="M3305.473,2824l44.583,3.791-44.583,5.427Z" transform="translate(-3186.05 -2801.476)" fill="#f4c203"/>
    <path id="Path_215" data-name="Path 215" d="M3342.424,2813.539a15.1,15.1,0,0,0,6.738,2.045,15.273,15.273,0,0,0,6.765-2.045s1.849-1.091,1.849-2.707-.009-4.182-1.849-3.757-3.39,8.509-6.765,8.509-4.818-8.085-6.738-8.509-1.744,2.141-1.744,3.757A3.752,3.752,0,0,0,3342.424,2813.539Z" transform="translate(-3196.868 -2793.696)" fill="none" stroke="#f4c203" stroke-width="5"/>
    <path id="Path_216" data-name="Path 216" d="M17.139.24S3.776,9.478.7,20.971s4.1,23.764,18.158,23.753A18.158,18.158,0,0,0,36.64,20.971C33.129,10.284,18.861,0,18.861,0S27.342,16.17,25.2,24.2s-13.464,7.752-14.713,0S17.139.24,17.139.24Z" transform="matrix(1, 0.017, -0.017, 1, 135.191, 28.109)" fill="#f4c203"/>
  </g>
</svg>
